{
    "ctf_name": "BSides Canberra CTF 2019",
    "ctf_host": "cybears",
    "ctf_host_email": "cybears@gmail.com",
    "allowed_cidr_blocks": ["0.0.0.0/0"],

    "ctfd_version": "2.0.6",
    "ctfd_theme": "cybears",
    "ctfd_dir": "infra/ctfd/custom_ctfd/bsides-2019",

    "aws_region": "ap-southeast-2",

    "db_cluster_instances": 1,
    "db_deletion_protection": false,
    "db_cluster_instance_type": "db.r5.large",

    "ctfd_eks_cluster_name": "ctfd_eks",
    "asg_min_size": 1,
    "asg_max_size": 1,
    "asg_instance_type": "t3.micro",

    "workers": 5,
    "worker_connections": 5000,

    "remote_state_lock": "terraform-state-locks",
    "remote_state_s3": "terraform-20200221041354879200000001",

    "ctf_domain": "test.cybears.io",
    "ctf_domain_zone_id": "Z2QOWGTHJLQX55",
    "chal_domain": "chaltest.cybears.io",
    "chal_domain_zone_id": "Z02767022IW3W6QFCR8AJ",
    "gitlab_group": "cybears-private",
    "gitlab_project": "fall-of-cybeartron",
    "gitlab_branch": "master",
    "artifact_bundle_job": "bundle/bsides/2019",
    "ctfd_bundle_job": "ctfd_bundle/bsides/2019",

    "force_destroy_challenge_bucket": true,
    "challenge_directories": ["challenges/bsides/2019"],
    "https_certificate_arn": "arn:aws:acm:us-east-1:190585481781:certificate/e93cde47-f5bf-4014-b511-09f2f0d5395b",

    "challenge_eks_cluster_name": "challenges_eks",

    "eks_autoscaling_group_windows_min_size": 1,
    "eks_autoscaling_group_windows_max_size": 2,
    "eks_autoscaling_group_windows_desired_capacity": 1
}
