{"frames": {

"cat_idle_blink_strip8-0.png":
{
	"frame": {"x":1,"y":1,"w":57,"h":51},
	"rotated": false,
	"trimmed": false,
	"spriteSourceSize": {"x":0,"y":0,"w":57,"h":51},
	"sourceSize": {"w":57,"h":51}
},
"cat_idle_blink_strip8-1.png":
{
	"frame": {"x":60,"y":1,"w":57,"h":51},
	"rotated": false,
	"trimmed": false,
	"spriteSourceSize": {"x":0,"y":0,"w":57,"h":51},
	"sourceSize": {"w":57,"h":51}
},
"cat_idle_blink_strip8-2.png":
{
	"frame": {"x":119,"y":1,"w":57,"h":51},
	"rotated": false,
	"trimmed": false,
	"spriteSourceSize": {"x":0,"y":0,"w":57,"h":51},
	"sourceSize": {"w":57,"h":51}
},
"cat_idle_blink_strip8-3.png":
{
	"frame": {"x":178,"y":1,"w":57,"h":51},
	"rotated": false,
	"trimmed": false,
	"spriteSourceSize": {"x":0,"y":0,"w":57,"h":51},
	"sourceSize": {"w":57,"h":51}
},
"cat_idle_blink_strip8-4.png":
{
	"frame": {"x":1,"y":54,"w":57,"h":51},
	"rotated": false,
	"trimmed": false,
	"spriteSourceSize": {"x":0,"y":0,"w":57,"h":51},
	"sourceSize": {"w":57,"h":51}
},
"cat_idle_blink_strip8-5.png":
{
	"frame": {"x":60,"y":54,"w":57,"h":51},
	"rotated": false,
	"trimmed": false,
	"spriteSourceSize": {"x":0,"y":0,"w":57,"h":51},
	"sourceSize": {"w":57,"h":51}
},
"cat_idle_blink_strip8-6.png":
{
	"frame": {"x":119,"y":54,"w":57,"h":51},
	"rotated": false,
	"trimmed": false,
	"spriteSourceSize": {"x":0,"y":0,"w":57,"h":51},
	"sourceSize": {"w":57,"h":51}
},
"cat_idle_blink_strip8-7.png":
{
	"frame": {"x":178,"y":54,"w":57,"h":51},
	"rotated": false,
	"trimmed": false,
	"spriteSourceSize": {"x":0,"y":0,"w":57,"h":51},
	"sourceSize": {"w":57,"h":51}
},
"cat_idle_strip8-0.png":
{
	"frame": {"x":1,"y":1,"w":57,"h":51},
	"rotated": false,
	"trimmed": false,
	"spriteSourceSize": {"x":0,"y":0,"w":57,"h":51},
	"sourceSize": {"w":57,"h":51}
},
"cat_idle_strip8-1.png":
{
	"frame": {"x":60,"y":1,"w":57,"h":51},
	"rotated": false,
	"trimmed": false,
	"spriteSourceSize": {"x":0,"y":0,"w":57,"h":51},
	"sourceSize": {"w":57,"h":51}
},
"cat_idle_strip8-2.png":
{
	"frame": {"x":119,"y":1,"w":57,"h":51},
	"rotated": false,
	"trimmed": false,
	"spriteSourceSize": {"x":0,"y":0,"w":57,"h":51},
	"sourceSize": {"w":57,"h":51}
},
"cat_idle_strip8-3.png":
{
	"frame": {"x":1,"y":107,"w":57,"h":51},
	"rotated": false,
	"trimmed": false,
	"spriteSourceSize": {"x":0,"y":0,"w":57,"h":51},
	"sourceSize": {"w":57,"h":51}
},
"cat_idle_strip8-4.png":
{
	"frame": {"x":1,"y":54,"w":57,"h":51},
	"rotated": false,
	"trimmed": false,
	"spriteSourceSize": {"x":0,"y":0,"w":57,"h":51},
	"sourceSize": {"w":57,"h":51}
},
"cat_idle_strip8-5.png":
{
	"frame": {"x":60,"y":54,"w":57,"h":51},
	"rotated": false,
	"trimmed": false,
	"spriteSourceSize": {"x":0,"y":0,"w":57,"h":51},
	"sourceSize": {"w":57,"h":51}
},
"cat_idle_strip8-6.png":
{
	"frame": {"x":119,"y":54,"w":57,"h":51},
	"rotated": false,
	"trimmed": false,
	"spriteSourceSize": {"x":0,"y":0,"w":57,"h":51},
	"sourceSize": {"w":57,"h":51}
},
"cat_idle_strip8-7.png":
{
	"frame": {"x":178,"y":54,"w":57,"h":51},
	"rotated": false,
	"trimmed": false,
	"spriteSourceSize": {"x":0,"y":0,"w":57,"h":51},
	"sourceSize": {"w":57,"h":51}
},
"cat_run_strip4-0.png":
{
	"frame": {"x":60,"y":107,"w":60,"h":51},
	"rotated": false,
	"trimmed": false,
	"spriteSourceSize": {"x":0,"y":0,"w":60,"h":51},
	"sourceSize": {"w":60,"h":51}
},
"cat_run_strip4-1.png":
{
	"frame": {"x":122,"y":107,"w":60,"h":51},
	"rotated": false,
	"trimmed": false,
	"spriteSourceSize": {"x":0,"y":0,"w":60,"h":51},
	"sourceSize": {"w":60,"h":51}
},
"cat_run_strip4-2.png":
{
	"frame": {"x":1,"y":160,"w":60,"h":51},
	"rotated": false,
	"trimmed": false,
	"spriteSourceSize": {"x":0,"y":0,"w":60,"h":51},
	"sourceSize": {"w":60,"h":51}
},
"cat_run_strip4-3.png":
{
	"frame": {"x":63,"y":160,"w":60,"h":51},
	"rotated": false,
	"trimmed": false,
	"spriteSourceSize": {"x":0,"y":0,"w":60,"h":51},
	"sourceSize": {"w":60,"h":51}
}},
"meta": {
	"app": "https://www.codeandweb.com/texturepacker",
	"version": "1.0",
	"image": "hero.png",
	"format": "RGBA8888",
	"size": {"w":236,"h":236},
	"scale": "1",
	"smartupdate": "$TexturePacker:SmartUpdate:9a94c6fc3064a61b1aaf0d7a3a9f3e3d:28a8c0d3f2f5cd9e5f76fb02e301fd5f:eec64b416d3f54b5cb5181ef71d8f236$"
}
}
